{
  "project_info": {
    "project_number": "941594301686",
    "firebase_url": "https://sknife-android.firebaseio.com",
    "project_id": "sknife-android",
    "storage_bucket": "sknife-android.appspot.com"
  },
  "client": [
    {
      "client_info": {
        "mobilesdk_app_id": "1:941594301686:android:0418345954a53ab49a48d7",
        "android_client_info": {
          "package_name": "sknife.sample"
        }
      },
      "oauth_client": [
        {
          "client_id": "941594301686-tp1947f3rsrfc03699nrte3l6gm8h7ve.apps.googleusercontent.com",
          "client_type": 3
        }
      ],
      "api_key": [
        {
          "current_key": "AIzaSyDaSYGw15xfo7X2m9lBtAUkZPZiGSM2S4k"
        }
      ],
      "services": {
        "appinvite_service": {
          "other_platform_oauth_client": [
            {
              "client_id": "941594301686-tp1947f3rsrfc03699nrte3l6gm8h7ve.apps.googleusercontent.com",
              "client_type": 3
            }
          ]
        }
      }
    }
  ],
  "configuration_version": "1"
}